<?xml version="1.0" encoding="UTF-8" standalone="no"?>
<!-- Created with Inkscape (http://www.inkscape.org/) -->

<svg
   xmlns:dc="http://purl.org/dc/elements/1.1/"
   xmlns:cc="http://creativecommons.org/ns#"
   xmlns:rdf="http://www.w3.org/1999/02/22-rdf-syntax-ns#"
   xmlns:svg="http://www.w3.org/2000/svg"
   xmlns="http://www.w3.org/2000/svg"
   xmlns:sodipodi="http://sodipodi.sourceforge.net/DTD/sodipodi-0.dtd"
   xmlns:inkscape="http://www.inkscape.org/namespaces/inkscape"
   width="133mm"
   height="132mm"
   viewBox="0 0 133 132"
   version="1.1"
   id="svg8"
   inkscape:version="0.92.4 (5da689c313, 2019-01-14)"
   sodipodi:docname="ray.svg">
  <defs
     id="defs2" />
  <sodipodi:namedview
     id="base"
     pagecolor="#ffffff"
     bordercolor="#666666"
     borderopacity="1.0"
     inkscape:pageopacity="0.0"
     inkscape:pageshadow="2"
     inkscape:zoom="0.81980745"
     inkscape:cx="254.55715"
     inkscape:cy="148.77231"
     inkscape:document-units="mm"
     inkscape:current-layer="layer1"
     showgrid="false"
     inkscape:window-width="1680"
     inkscape:window-height="987"
     inkscape:window-x="1672"
     inkscape:window-y="-8"
     inkscape:window-maximized="1" />
  <metadata
     id="metadata5">
    <rdf:RDF>
      <cc:Work
         rdf:about="">
        <dc:format>image/svg+xml</dc:format>
        <dc:type
           rdf:resource="http://purl.org/dc/dcmitype/StillImage" />
        <dc:title></dc:title>
      </cc:Work>
    </rdf:RDF>
  </metadata>
  <g
     inkscape:label="Layer 1"
     inkscape:groupmode="layer"
     id="layer1"
     transform="translate(0,-165)">
    <path
       id="path895"
       d="M 98.308683,222.53334 H 69.680766 l 13.864167,-49.45063 c 0.238125,-1.19062 -1.217083,-1.87854 -1.905,-0.89958 l -48.603958,63.73812 c -1.005417,1.48167 -0.05292,3.54542 1.666875,3.54542 H 63.330766 L 49.4666,288.91729 c -0.238125,1.19063 1.217083,1.87855 1.905,0.89959 l 48.603953,-63.71167 c 0.978957,-1.50812 0.0529,-3.57187 -1.66687,-3.57187 z"
       inkscape:connector-curvature="0"
       style="stroke-width:0.26458332;fill:#757575;fill-opacity:1" />
  </g>
</svg>
