<?xml version="1.0" encoding="UTF-8" standalone="no"?>
<!-- Created with Inkscape (http://www.inkscape.org/) -->

<svg
   xmlns:dc="http://purl.org/dc/elements/1.1/"
   xmlns:cc="http://creativecommons.org/ns#"
   xmlns:rdf="http://www.w3.org/1999/02/22-rdf-syntax-ns#"
   xmlns:svg="http://www.w3.org/2000/svg"
   xmlns="http://www.w3.org/2000/svg"
   xmlns:sodipodi="http://sodipodi.sourceforge.net/DTD/sodipodi-0.dtd"
   xmlns:inkscape="http://www.inkscape.org/namespaces/inkscape"
   width="133mm"
   height="132mm"
   viewBox="0 0 133 132"
   version="1.1"
   id="svg8"
   inkscape:version="0.92.4 (5da689c313, 2019-01-14)"
   sodipodi:docname="trash.svg">
  <defs
     id="defs2" />
  <sodipodi:namedview
     id="base"
     pagecolor="#ffffff"
     bordercolor="#666666"
     borderopacity="1.0"
     inkscape:pageopacity="0.0"
     inkscape:pageshadow="2"
     inkscape:zoom="0.81980745"
     inkscape:cx="272.85412"
     inkscape:cy="148.77231"
     inkscape:document-units="mm"
     inkscape:current-layer="layer1"
     showgrid="false"
     inkscape:window-width="1680"
     inkscape:window-height="987"
     inkscape:window-x="1672"
     inkscape:window-y="-8"
     inkscape:window-maximized="1" />
  <metadata
     id="metadata5">
    <rdf:RDF>
      <cc:Work
         rdf:about="">
        <dc:format>image/svg+xml</dc:format>
        <dc:type
           rdf:resource="http://purl.org/dc/dcmitype/StillImage" />
        <dc:title></dc:title>
      </cc:Work>
    </rdf:RDF>
  </metadata>
  <g
     inkscape:label="Layer 1"
     inkscape:groupmode="layer"
     id="layer1"
     transform="translate(0,-165)">
    <g
       id="g1084"
       transform="matrix(0.27339129,0,0,0.2381087,-3.4881702,170.04417)"
       style="fill:#757575;fill-opacity:1">
      <g
         id="g1018"
         style="fill:#757575;fill-opacity:1">
	<g
   id="g1016"
   style="fill:#757575;fill-opacity:1">
		<path
   id="path1014"
   d="M 318.337,65.453 V 0 H 193.663 V 65.453 H 36.15 V 157 h 439.7 V 65.453 Z m -30,0 H 223.663 V 30 h 64.674 z"
   inkscape:connector-curvature="0"
   style="fill:#757575;fill-opacity:1" />

	</g>

</g>
      <g
         id="g1024"
         style="fill:#757575;fill-opacity:1">
	<g
   id="g1022"
   style="fill:#757575;fill-opacity:1">
		<path
   id="path1020"
   d="m 66.672,187 31.57,325 h 315.516 l 31.57,-325 z m 102.997,254.5 -8.958,-191.167 h 30.033 L 199.702,441.5 Z M 271,441.5 H 241 V 250.333 h 30 z m 71.331,0 h -30.033 l 8.958,-191.167 h 30.033 z"
   inkscape:connector-curvature="0"
   style="fill:#757575;fill-opacity:1" />

	</g>

</g>
      <g
         id="g1026"
         style="fill:#757575;fill-opacity:1">
</g>
      <g
         id="g1028"
         style="fill:#757575;fill-opacity:1">
</g>
      <g
         id="g1030"
         style="fill:#757575;fill-opacity:1">
</g>
      <g
         id="g1032"
         style="fill:#757575;fill-opacity:1">
</g>
      <g
         id="g1034"
         style="fill:#757575;fill-opacity:1">
</g>
      <g
         id="g1036"
         style="fill:#757575;fill-opacity:1">
</g>
      <g
         id="g1038"
         style="fill:#757575;fill-opacity:1">
</g>
      <g
         id="g1040"
         style="fill:#757575;fill-opacity:1">
</g>
      <g
         id="g1042"
         style="fill:#757575;fill-opacity:1">
</g>
      <g
         id="g1044"
         style="fill:#757575;fill-opacity:1">
</g>
      <g
         id="g1046"
         style="fill:#757575;fill-opacity:1">
</g>
      <g
         id="g1048"
         style="fill:#757575;fill-opacity:1">
</g>
      <g
         id="g1050"
         style="fill:#757575;fill-opacity:1">
</g>
      <g
         id="g1052"
         style="fill:#757575;fill-opacity:1">
</g>
      <g
         id="g1054"
         style="fill:#757575;fill-opacity:1">
</g>
    </g>
  </g>
</svg>
